<svg width="18" height="22" viewBox="0 0 18 22" fill="none" xmlns="http://www.w3.org/2000/svg">
<path fill-rule="evenodd" clip-rule="evenodd" d="M17.5645 18.7776L14.0923 14.1862C16.7129 11.2829 17.0404 6.8266 14.813 3.58566C12.2579 -0.195438 7.14788 -1.14071 3.47913 1.49255C-0.189632 4.19333 -1.10682 9.39234 1.44821 13.241C3.67567 16.4819 7.86853 17.6973 11.4063 16.0768L14.3544 21.0732C15.7957 23.3689 19.2024 20.9382 17.5645 18.7776ZM12.3235 5.40869C13.8958 7.77187 13.3717 11.0128 11.0787 12.7008C8.78572 14.3213 5.57556 13.7811 4.00323 11.4179C2.3654 9.05474 2.95502 5.74628 5.24799 4.12581C7.54097 2.43782 10.6856 3.0455 12.3235 5.40869Z" fill="#E1EBF2"/>
</svg>
